[
  {
    "request": "start=2018-09-11T06:30:00.000Z&end=2018-09-11T06:34:00.000Z",
    "response": [
      [
        1536647580,
        6333.60,
        6335.02,
        6333.78,
        6334.99,
        0.40668620000000005
      ],
      [
        1536647520,
        6333.40,
        6337.16,
        6337.14,
        6333.78,
        0.49328889
      ],
      [
        1536647460,
        6335.00,
        6338.26,
        6336.61,
        6337.14,
        0.37332712
      ],
      [
        1536647400,
        6334.93,
        6337.01,
        6335.75,
        6336.61,
        2.54547539
      ]
    ]
  },
  {
    "request": "start=2018-09-11T06:34:00.000Z&end=2018-09-11T06:38:00.000Z",
    "response": [
      [
        1536647820,
        6337.12,
        6339.04,
        6337.23,
        6338.81,
        0.64555028
      ],
      [
        1536647760,
        6336.73,
        6339.74,
        6339.70,
        6337.23,
        0.6466439200000001
      ],
      [
        1536647700,
        6339.68,
        6340.30,
        6340.22,
        6339.70,
        0.8892658999999999
      ],
      [
        1536647640,
        6334.98,
        6340.59,
        6334.99,
        6340.22,
        4.5743648399999985
      ]
    ]
  }
]
